Возраст,Рост,Вес,Шаги,Отработанные_часы,Часы_сна
25,170,65,8000,8,7
30,165,70,9000,7,6
35,175,80,10000,8,6.5
28,172,75,8500,9,7
32,168,68,9500,8,7.5
27,169,72,8700,8,6
29,171,74,9200,7,6.8
31,166,71,9300,8,7
33,174,78,9800,8,7
26,173,76,9100,9,7.2
22,168,67,8200,7,6.2
36,178,85,10500,9,6.8
29,171,73,9200,8,7.1
34,173,79,9700,8,6.5
28,169,69,9300,9,6.7
30,172,72,9100,8,6.9
31,170,71,9400,7,6.4
27,175,77,8900,8,7.3
35,177,82,9800,8,6.6
33,176,80,9600,9,7
26,172,68,9000,8,6.8
38,180,88,10800,8,6.5
24,167,64,8100,7,6.3
37,179,86,10600,8,7.2
29,171,73,9200,7,6.7
34,174,79,9700,9,6.9
31,170,71,9400,8,6.6
25,175,75,8700,8,6.8
33,178,81,9800,7,6.5
30,172,72,9100,8,6.9
28,169,69,9300,9,6.7
36,176,83,10200,8,6.6
32,173,76,9500,7,6.8
26,168,66,8300,9,6.3
35,177,82,9800,8,6.6
23,169,63,7900,7,6.4
39,182,90,11000,8,6.5
28,170,70,9000,9,6.7
37,179,86,10600,8,7.2
29,171,73,9200,7,6.7
34,174,79,9700,9,6.9
31,170,71,9400,8,6.6
25,175,75,8700,8,6.8
33,178,81,9800,7,6.5
30,172,72,9100,8,6.9
28,169,69,9300,9,6.7
36,176,83,10200,8,6.6
32,173,76,9500,7,6.8
26,168,66,8300,9,6.3
35,177,82,9800,8,6.6
23,169,63,7900,7,6.4
39,182,90,11000,8,6.5

